D:\workspace\BDD Test Framework\src\main\java\pages\EmailPage.java
D:\workspace\BDD Test Framework\src\main\java\util\TestUtil.java
D:\workspace\BDD Test Framework\src\main\java\pages\GeneralActions.java
D:\workspace\BDD Test Framework\src\main\java\pages\PasswordPage.java
D:\workspace\BDD Test Framework\src\main\java\base\TestBase.java
D:\workspace\BDD Test Framework\src\main\java\runner\SortByAvailabilityRunner.java
D:\workspace\BDD Test Framework\src\main\java\config\Constants.java
D:\workspace\BDD Test Framework\src\main\java\runner\LoginRunner.java
D:\workspace\BDD Test Framework\src\main\java\util\ExplicitWait.java
D:\workspace\BDD Test Framework\src\main\java\util\WebEventListener.java
D:\workspace\BDD Test Framework\src\main\java\pages\DefaultPage.java
D:\workspace\BDD Test Framework\src\main\java\runner\SearchRunner.java
D:\workspace\BDD Test Framework\src\main\java\stepDefinitions\LoginStepDef.java
D:\workspace\BDD Test Framework\src\main\java\stepDefinitions\SearchStepDef.java
D:\workspace\BDD Test Framework\src\main\java\stepDefinitions\MasterHooks.java
D:\workspace\BDD Test Framework\src\main\java\stepDefinitions\SortByAvailabilityStepDef.java
D:\workspace\BDD Test Framework\src\main\java\pages\HomePage.java
D:\workspace\BDD Test Framework\src\main\java\pages\ResultsPage.java
